[{
    "id": "en_CA",
    "currencyCode": "CAD"
},{
    "id": "en_US",
    "currencyCode": "USD"
}, {
    "id": "en_GB",
    "currencyCode": "GBP"
}, {
    "id": "ja_JP",
    "currencyCode": "JPY"
}, {
    "id": "zh_CN",
    "currencyCode": "CNY"
}, {
    "id": "fr_FR",
    "currencyCode": "EUR"
}, {
    "id": "it_IT",
    "currencyCode": "EUR"
}]
